…
## Warning: 2327 parsing failures.
## row col expected actual
##  13  -- a number    EXH
##  36  -- a number    EXH
##  58  -- a number    EXH
##  60  -- a number    EXH
##  61  -- a number    EXH
## ... ... ........ ......
## See problems(...) for more details.

pumpkins

## # A tibble: 15,965 x 6
##    weight_lbs  year place   ott gpc_site                             country    
##         <dbl> <dbl> <dbl> <dbl> <chr>                                <chr>      
##  1      2032   2013     1   475 Uesugi Farms Weigh-off               United Sta~
##  2      1985   2013     2   453 Safeway World Championship Pumpkin ~ United Sta~
##  3      1894   2013     3   445 Safeway World Championship Pumpkin ~ United Sta~
##  4      1874.  2013     4   436 Elk Grove Giant Pumpkin Festival     United Sta~
##  5      1813   2013     5   430 The Great Howard Dill Giant Pumpkin~ Canada     
##  6      1791   2013     6   431 Elk Grove Giant Pumpkin Festival     United Sta~
##  7      1784   2013     7   445 Uesugi Farms Weigh-off               United Sta~
##  8      1784.  2013     8   434 Stillwater Harvestfest               United Sta~
##  9      1780.  2013     9   422 Stillwater Harvestfest               United Sta~
## 10      1766.  2013    10   425 Durham Fair Weigh-Off                United Sta~
## # ... with 15,955 more rows
…
