…
Explore the data

## Rows: 1277 Columns: 24

## -- Column specification --------------------------------------------------------
## Delimiter: ","
## chr (11): name, original_name, sex, nationality, military_civilian, selectio...
## dbl (13): id, number, nationwide_number, year_of_birth, year_of_selection, m...

## 
## i Use `spec()` to retrieve the full column specification for this data.
## i Specify the column types or set `show_col_types = FALSE` to quiet this message.

## # A tibble: 289 x 2
##    in_orbit      n
##    <chr>     <int>
##  1 ISS         174
##  2 Mir          71
##  3 Salyut 6     24
##  4 Salyut 7     24
##  5 STS-42        8
##  6 explosion     7
##  7 STS-103       7
##  8 STS-107       7
##  9 STS-109       7
## 10 STS-110       7
## # ... with 279 more rows
…
The models return aggregated variable importance scores, and we can see that the spacecraft and year are importance in both models.

Evaluate model

Let’s evaluate how well these two models did by evaluating performance on the test data.

## # A tibble: 318 x 9
##    name  mission_title hours_mission military_civili~ occupation year_of_mission
##    <chr> <chr>                 <dbl> <chr>            <chr>                <dbl>
##  1 Tito~ Vostok 2               3.22 military         pilot                 1961
##  2 Glen~ MA-6                   1.61 military         pilot                 1962
##  3 Glen~ STS-95                 5.36 military         psp                   1998
##  4 Niko~ Soyuz 9                6.05 military         pilot                 1970
##  5 Popo~ Soyuz 14               5.93 military         commander             1974
##  6 Byko~ Soyuz 31/29            5.24 military         commander             1978
##  7 Koma~ Soyuz 1                3.29 military         commander             1967
##  8 Leon~ Voskhod 2              3.26 military         pilot                 1965
##  9 Borm~ Gemini 7               5.80 military         commander             1965
## 10 Borm~ Apollo 8               4.99 military         commander             1968
## # ... with 308 more rows, and 3 more variables: in_orbit <chr>,
## #   .pred_tree <dbl>, .pred_mars <dbl>
…
